Эффекты ареальности в Сибири
…
## [1] "chuk1273" "halh1238" "ngan1291" "sout2750" "tata1255" "udih1248"

Добавим данные по тому, сибирский ли это язык, из первой выборки:

atten_world %>%
  mutate(in_siberia = if_else(
    glottocode %in% in_sib_world, 1, 0
  )) %>%
  rename(., has_attenuative=has.atten) %>%
  mutate(family = as.factor(family), in_siberia = as.logical(in_siberia)) ->
  atten_world

atten_world

## # A tibble: 120 × 5
##    language          glottocode family          has_attenuative in_siberia
##    <chr>             <chr>      <fct>           <chr>           <lgl>     
##  1 Mpade             mpad1242   Afro-Asiatic    0               FALSE     
##  2 Tiefo-Daramandugu tief1242   Atlantic-Congo  0               FALSE     
##  3 Bambassi          bamb1262   Blue Nile Mao   0               FALSE     
##  4 Ma'di             madi1260   Central Sudanic 0               FALSE     
##  5 Sheko             shek1245   Dizoid          0               FALSE     
##  6 Yanda Dom Dogon   yand1257   Dogon           0               FALSE     
##  7 Northern Gumuz    gumu1244   Gumuz           0               FALSE     
##  8 Sandawe           sand1273   isolate         1               FALSE     
##  9 Ts'ixa            tsix1234   Khoe-Kwadi      0               FALSE     
## 10 Uduk              uduk1239   Koman           0               FALSE     
## # ℹ 110 more rows
…
atten_world

## # A tibble: 110 × 5
##    language          glottocode family          has_attenuative in_siberia
##    <chr>             <chr>      <fct>           <lgl>           <lgl>     
##  1 Mpade             mpad1242   Afro-Asiatic    FALSE           FALSE     
##  2 Tiefo-Daramandugu tief1242   Atlantic-Congo  FALSE           FALSE     
##  3 Bambassi          bamb1262   Blue Nile Mao   FALSE           FALSE     
##  4 Ma'di             madi1260   Central Sudanic FALSE           FALSE     
##  5 Sheko             shek1245   Dizoid          FALSE           FALSE     
##  6 Yanda Dom Dogon   yand1257   Dogon           FALSE           FALSE     
##  7 Northern Gumuz    gumu1244   Gumuz           FALSE           FALSE     
##  8 Sandawe           sand1273   isolate         TRUE            FALSE     
##  9 Ts'ixa            tsix1234   Khoe-Kwadi      FALSE           FALSE     
## 10 Uduk              uduk1239   Koman           FALSE           FALSE     
## # ℹ 100 more rows
…
